…
Under the hood, the returned object is a tibble that contains the return
from a `fs::dir_info()` call augmented by a `class` column:

``` r
tibble::as_tibble(pf_get())
#> # A tibble: 213 x 19
#>    path       type     size permissions modification_time   user  group
#>    <fs::path> <fct> <fs::b> <fs::perms> <dttm>              <chr> <chr>
#>  1 .Rbuildig… file       89 rw-rw-r--   2019-05-20 16:06:14 kiri… kiri…
#>  2 .Rhistory  file    3.55K rw-rw-r--   2019-05-20 16:03:43 kiri… kiri…
#>  3 .Rproj.us… file        8 rw-rw-r--   2019-05-20 11:29:47 kiri… kiri…
#>  4 .Rproj.us… file       23 rw-rw-r--   2019-05-20 11:29:47 kiri… kiri…
#>  5 .Rproj.us… file        0 rw-rw-r--   2019-05-20 11:29:47 kiri… kiri…
#>  6 .Rproj.us… file      136 rw-rw-r--   2019-05-20 11:29:47 kiri… kiri…
#>  7 .Rproj.us… file       73 rw-rw-r--   2019-05-20 11:29:47 kiri… kiri…
#>  8 .Rproj.us… file      478 rwxrwxr-x   2019-05-20 11:29:47 kiri… kiri…
#>  9 .Rproj.us… file      896 rwxrwxr-x   2019-05-20 11:29:47 kiri… kiri…
#> 10 .Rproj.us… file    3.25K rwxrwxr-x   2019-05-20 11:29:47 kiri… kiri…
#> # … with 203 more rows, and 12 more variables: device_id <dbl>,
#> #   hard_links <dbl>, special_device_id <dbl>, inode <dbl>,
#> #   block_size <dbl>, blocks <dbl>, flags <int>, generation <dbl>,
#> #   access_time <dttm>, change_time <dttm>, birth_time <dttm>, class <chr>
```

The classification is based on regular expressions for the
project-relative path of the files. This list is extensible but the
existing entries should rarely change.

``` r
pkgfiles:::classification
#> # A tibble: 33 x 3
#>    class             regex                        desc                     
#>    <chr>             <chr>                        <chr>                    
#>  1 R                 "^R/(?:[^/])+\\.[rR]$"       R source                 
#>  2 R/unix            "^R/unix/(?:[^/])+\\.[rR]$"  R source (Unix only)     
#>  3 R/windows         "^R/windows/(?:[^/])+\\.[rR… R source (Windows only)  
#>  4 DESCRIPTION       ^DESCRIPTION$                DESCRIPTION              
#>  5 NEWS              "^(?:NEWS|NEWS\\.md|ChangeL… NEWS                     
#>  6 Rproj             ^.*[.]Rproj$                 RStudio project          
#>  7 man               "^man/(?:[^/])+\\.Rd$"       Documentation            
#>  8 man/unix          "^man/unix/(?:[^/])+\\.Rd$"  Documentation (Unix only)
#>  9 man/windows       "^man/windows/(?:[^/])+\\.R… Documentation (Windows o…
#> 10 vignettes/text/R… "^vignettes/(?:[^/])+\\.Rmd… Vignette (Rmd sources)   
#> # … with 23 more rows
```
